{
    "type": "minecraft:archaeology",
    "pools": [
        {
            "bonus_rolls": 0.0,
            "entries": [
                {
                    "type": "minecraft:item",
                    "name": "cobblemon:everstone",
                    "weight": 8
                },
                {
                    "type": "minecraft:item",
                    "name": "cobblemon:damp_rock",
                    "weight": 8
                },
                {
                    "type": "minecraft:item",
                    "name": "cobblemon:deep_sea_tooth",
                    "weight": 5
                },
                {
                    "type": "minecraft:item",
                    "name": "cobblemon:deep_sea_scale",
                    "weight": 5
                },
                {
                    "type": "minecraft:item",
                    "name": "cobblemon:prism_scale",
                    "weight": 5
                },
                {
                    "type": "minecraft:item",
                    "name": "cobblemon:cover_fossil",
                    "weight": 2
                },
                {
                    "type": "minecraft:item",
                    "name": "cobblemon:fossilized_fish",
                    "weight": 2
                },
                {
                    "type": "minecraft:item",
                    "name": "cobblemon:root_fossil",
                    "weight": 2
                },
                {
                    "type": "minecraft:item",
                    "name": "cobblemon:dome_fossil",
                    "weight": 2
                },
                {
                    "type": "minecraft:item",
                    "name": "cobblemon:vivichoke_seeds",
                    "weight": 10
                }
            ],
            "rolls": 1.0
        }
    ],
    "random_sequence": "cobblemon:fossils/uncommon/prehistoric_hydrothermal_vent"
}