{
	"format_version": "1.8.0",
	"animations": {
		"animation.yanma.ground_idle": {
			"loop": true,
			"bones": {
				"body": {
					"position": [0, 1.5, 0]
				},
				"leg_right1": {
					"rotation": [6.49394, -16.7025, -22.6481]
				},
				"leg_joint_right1": {
					"rotation": [17.69452, -47.963, -17.7258]
				},
				"leg_right2": {
					"rotation": [0, 0, 10]
				},
				"leg_joint_right2": {
					"rotation": [0, 0, -67.5]
				},
				"leg_right3": {
					"rotation": [7.41127, 38.7004, 3.3456]
				},
				"leg_joint_right3": {
					"rotation": [-1.43806, 13.1133, -51.84806]
				},
				"leg_left1": {
					"rotation": [6.49394, 16.70247, 22.64813]
				},
				"leg_joint_left1": {
					"rotation": [17.69452, 47.963, 17.72577]
				},
				"leg_left2": {
					"rotation": [0, 0, -10]
				},
				"leg_joint_left2": {
					"rotation": [0, 0, 67.5]
				},
				"leg_left3": {
					"rotation": [7.41127, -38.70037, -3.34559]
				},
				"leg_joint_left3": {
					"rotation": [-1.43806, -13.1133, 51.8481]
				},
				"tail1": {
					"rotation": [-10, 0, 0]
				},
				"mandible_right": {
					"rotation": [18.10082, 16.28432, 18.48341]
				},
				"mandible_left": {
					"rotation": [16.63808, -17.77794, -13.49259]
				},
				"head": {
					"rotation": [-2.5, 0, 0]
				},
				"atenna_right": {
					"rotation": [-35.3335, -13.47157, -18.19144]
				},
				"atenna_left": {
					"rotation": [-33.34411, 11.31335, 16.60179]
				},
				"tail_right1": {
					"rotation": [0, 0, 7.5]
				},
				"tail_left1": {
					"rotation": [0, 0, -7.5]
				},
				"torso": {
					"rotation": [5, 0, 0],
					"position": [0, -0.25, 0]
				},
				"wing_right1": {
					"rotation": [0, -5, 0]
				},
				"wing_right2": {
					"rotation": [0.2255, 14.99513, 2.54881]
				},
				"wing_left1": {
					"rotation": [0, 5, 0]
				},
				"wing_left2": {
					"rotation": [0.22839, -17.49513, -2.55916]
				}
			}
		},
		"animation.yanma.happy_test": {
			"loop": true,
			"bones": {
				"jaw": {
					"rotation": [37.5, 0, 0]
				},
				"eye_right": {
					"position": [0.1, 0, 0]
				},
				"happy_eye_right": {
					"position": [-0.3, 0, 0]
				},
				"eye_left": {
					"position": [-0.1, 0, 0]
				},
				"happy_eye_left": {
					"position": [0.3, 0, 0]
				}
			}
		},
		"animation.yanma.blink": {
			"animation_length": 0.16667,
			"bones": {
				"eyelid_right": {
					"position": {
						"0.0": [-0.1, 0, 0],
						"0.125": [-0.1, 0, 0],
						"0.1667": [-0.1, 0, 0]
					}
				},
				"eyelid_left": {
					"position": {
						"0.0": [0.1, 0, 0],
						"0.125": [0.1, 0, 0],
						"0.1667": [-0.1, 0, 0]
					}
				}
			}
		},
		"animation.yanma.render": {
			"loop": true,
			"bones": {
				"body": {
					"rotation": [18.54835, -19.03771, -6.24605],
					"position": [0, 6, 0]
				},
				"head": {
					"rotation": [2.18558, 9.76061, 12.68664],
					"position": [-0.25, 0, 0]
				},
				"mandible_right": {
					"rotation": [21.73043, 16.09188, -2.16931]
				},
				"mandible_left": {
					"rotation": [21.73043, -16.0919, 2.1693]
				},
				"atenna_right": {
					"rotation": [-33.73499, -9.93191, -14.48174]
				},
				"atenna_left": {
					"rotation": [-33.73499, 9.9319, 14.4817]
				},
				"wing_right1": {
					"rotation": [-5.35254, -11.31255, 25.53051]
				},
				"wing_right2": {
					"rotation": [1.03509, 22.47741, 2.70569]
				},
				"wing_left1": {
					"rotation": [-5.35254, 11.3125, -25.5305]
				},
				"wing_left2": {
					"rotation": [1.03509, -22.4774, -2.7057]
				},
				"tail1": {
					"rotation": [0, -12.5, 0]
				},
				"tail2": {
					"rotation": [6.52568, -5.90439, 4.77653]
				},
				"tail3": {
					"rotation": [12.5, 0, 0]
				},
				"tail_end": {
					"rotation": [15, 0, 0]
				},
				"tail_right1": {
					"rotation": [0, 0, 12.5]
				},
				"tail_right2": {
					"rotation": [0, 0, 15]
				},
				"tail_left1": {
					"rotation": [0, 0, -15]
				},
				"tail_left2": {
					"rotation": [0, 0, -15]
				},
				"leg_right1": {
					"rotation": [0, 10, -35]
				},
				"leg_joint_right1": {
					"rotation": [72.66486, -57.95953, -91.45742]
				},
				"leg_right2": {
					"rotation": [-5.72511, 29.4987, -26.50839]
				},
				"leg_joint_right2": {
					"rotation": [52.38443, -40.84182, -63.256]
				},
				"leg_right3": {
					"rotation": [-26.77197, 36.91782, -50.48268]
				},
				"leg_joint_right3": {
					"rotation": [22.66667, -42.934, -31.51303]
				},
				"leg_left1": {
					"rotation": [0, -10, 35]
				},
				"leg_joint_left1": {
					"rotation": [72.66486, 57.9595, 91.4574]
				},
				"leg_left2": {
					"rotation": [-5.72511, -29.4987, 26.5084]
				},
				"leg_joint_left2": {
					"rotation": [52.38443, 40.8418, 63.256]
				},
				"leg_left3": {
					"rotation": [-26.77197, -36.9178, 50.4827]
				},
				"leg_joint_left3": {
					"rotation": [22.66667, 42.934, 31.513]
				},
				"jaw": {
					"rotation": [47.5, 0, 0]
				}
			}
		}
	}
}