{
  "implemented": true,
  "name": "Beartic",
  "nationalPokedexNumber": 614,
  "primaryType": "ice",
  "abilities": [
    "snowcloak",
    "slushrush",
    "h:swiftswim"
  ],
  "drops": {
    "amount": 5,
    "entries": [
      {
        "item": "minecraft:snowball",
        "quantityRange": "0-2"
      },
      {
        "item": "minecraft:cod",
        "quantityRange": "0-2"
      },
      {
        "item": "cobblemon:aspear_berry",
        "percentage": 5.0
      }
    ]
  },
  "baseStats": {
    "hp": 95,
    "attack": 130,
    "defence": 80,
    "special_attack": 70,
    "special_defence": 80,
    "speed": 50
  },
  "behaviour": {
    "moving": {
      "swim": {
        "swimSpeed": 0.3,
        "canSwimInWater": true,
        "canBreatheUnderwater": false
      }
    },
    "resting": {
      "canSleep": true,
      "willSleepOnBed": false,
      "depth": "normal",
      "light": "0-4"
    }
  },
  "catchRate": 60,
  "maleRatio": 0.5,
  "shoulderMountable": false,
  "baseExperienceYield": 177,
  "experienceGroup": "medium_fast",
  "eggCycles": 20,
  "eggGroups": [
    "field"
  ],
  "moves": [
    "1:aquajet",
    "1:bide",
    "1:charm",
    "1:endure",
    "1:furyswipes",
    "1:growl",
    "1:iciclecrash",
    "1:powdersnow",
    "9:icywind",
    "12:playnice",
    "15:brine",
    "18:frostbreath",
    "21:slash",
    "24:flail",
    "27:swagger",
    "30:hail",
    "30:snowscape",
    "33:thrash",
    "36:rest",
    "41:blizzard",
    "46:sheercold",
    "51:superpower",
    "tm:aerialace",
    "tm:assurance",
    "tm:attract",
    "tm:avalanche",
    "tm:blizzard",
    "tm:bodypress",
    "tm:bodyslam",
    "tm:brickbreak",
    "tm:brine",
    "tm:bulkup",
    "tm:bulldoze",
    "tm:charm",
    "tm:chillingwater",
    "tm:closecombat",
    "tm:confide",
    "tm:crunch",
    "tm:curse",
    "tm:cut",
    "tm:dig",
    "tm:dive",
    "tm:doubleedge",
    "tm:doubleteam",
    "tm:earthquake",
    "tm:echoedvoice",
    "tm:encore",
    "tm:endeavor",
    "tm:endure",
    "tm:facade",
    "tm:fling",
    "tm:focusblast",
    "tm:focuspunch",
    "tm:frostbreath",
    "tm:frustration",
    "tm:gigaimpact",
    "tm:grassknot",
    "tm:hardpress",
    "tm:hail",
    "tm:heavyslam",
    "tm:hiddenpower",
    "tm:honeclaws",
    "tm:hyperbeam",
    "tm:icebeam",
    "tm:icefang",
    "tm:icepunch",
    "tm:iciclespear",
    "tm:icywind",
    "tm:liquidation",
    "tm:lowkick",
    "tm:megakick",
    "tm:megapunch",
    "tm:metalclaw",
    "tm:mudshot",
    "tm:mudslap",
    "tm:playrough",
    "tm:poweruppunch",
    "tm:protect",
    "tm:raindance",
    "tm:rest",
    "tm:return",
    "tm:reversal",
    "tm:roar",
    "tm:rockslide",
    "tm:rocksmash",
    "tm:rocktomb",
    "tm:round",
    "tm:scaryface",
    "tm:secretpower",
    "tm:shadowclaw",
    "tm:sleeptalk",
    "tm:snarl",
    "tm:snore",
    "tm:snowscape",
    "tm:stoneedge",
    "tm:strength",
    "tm:substitute",
    "tm:superpower",
    "tm:surf",
    "tm:swagger",
    "tm:swordsdance",
    "tm:takedown",
    "tm:taunt",
    "tm:terablast",
    "tm:thief",
    "tm:throatchop",
    "tm:toxic",
    "tm:trailblaze",
    "tm:waterpulse",
    "tm:xscissor",
    "tutor:covet",
    "tutor:focuspunch",
    "tutor:icepunch",
    "tutor:icywind",
    "tutor:lowkick",
    "tutor:sleeptalk",
    "tutor:snore",
    "tutor:superpower",
    "tutor:throatchop",
    "tutor:waterpulse"
  ],
  "labels": [
    "gen5"
  ],
  "pokedex": [
    "cobblemon.species.beartic.desc"
  ],
  "preEvolution": "cubchoo",
  "evolutions": [],
  "baseScale": 1.3,
  "hitbox": {
    "width": 1.2,
    "height": 2.15,
    "fixed": false
  },
  "baseFriendship": 50,
  "evYield": {
    "hp": 0,
    "attack": 2,
    "defence": 0,
    "special_attack": 0,
    "special_defence": 0,
    "speed": 0
  },
  "height": 26,
  "weight": 2600,
  "aspects": [],
  "cannotDynamax": false
}