{
  "implemented": true,
  "name": "Larvesta",
  "nationalPokedexNumber": 636,
  "primaryType": "bug",
  "secondaryType": "fire",
  "abilities": [
    "flamebody",
    "h:swarm"
  ],
  "drops": {
    "amount": 4,
    "entries": [
      {
        "item": "minecraft:string",
        "quantityRange": "0-1"
      },
      {
        "item": "minecraft:blaze_powder",
        "percentage": 2.5
      },
      {
        "item": "cobblemon:silver_powder",
        "percentage": 2.5
      },
      {
        "item": "cobblemon:charti_berry",
        "percentage": 2.5
      }
    ]
  },
  "baseStats": {
    "hp": 55,
    "attack": 85,
    "defence": 55,
    "special_attack": 50,
    "special_defence": 55,
    "speed": 60
  },
  "catchRate": 45,
  "maleRatio": 0.5,
  "shoulderMountable": false,
  "baseExperienceYield": 72,
  "experienceGroup": "slow",
  "eggCycles": 40,
  "eggGroups": [
    "bug"
  ],
  "moves": [
    "1:ember",
    "1:stringshot",
    "6:flamecharge",
    "10:absorb",
    "12:strugglebug",
    "18:flamewheel",
    "24:bugbite",
    "30:screech",
    "36:leechlife",
    "42:bugbuzz",
    "48:takedown",
    "54:amnesia",
    "60:doubleedge",
    "66:flareblitz",
    "90:thrash",
    "egg:absorb",
    "egg:endure",
    "egg:foresight",
    "egg:harden",
    "egg:magnetrise",
    "egg:morningsun",
    "egg:stringshot",
    "egg:thrash",
    "egg:zenheadbutt",
    "tm:acrobatics",
    "tm:amnesia",
    "tm:attract",
    "tm:bodyslam",
    "tm:bugbite",
    "tm:bugbuzz",
    "tm:calmmind",
    "tm:confide",
    "tm:doubleedge",
    "tm:doubleteam",
    "tm:endure",
    "tm:facade",
    "tm:fireblast",
    "tm:firespin",
    "tm:flamecharge",
    "tm:flamethrower",
    "tm:flareblitz",
    "tm:frustration",
    "tm:gigadrain",
    "tm:heatwave",
    "tm:hiddenpower",
    "tm:incinerate",
    "tm:leechlife",
    "tm:lightscreen",
    "tm:lunge",
    "tm:overheat",
    "tm:pounce",
    "tm:protect",
    "tm:psychic",
    "tm:rest",
    "tm:return",
    "tm:round",
    "tm:safeguard",
    "tm:screech",
    "tm:secretpower",
    "tm:skittersmack",
    "tm:sleeptalk",
    "tm:snore",
    "tm:solarbeam",
    "tm:strugglebug",
    "tm:substitute",
    "tm:sunnyday",
    "tm:swagger",
    "tm:takedown",
    "tm:terablast",
    "tm:toxic",
    "tm:trailblaze",
    "tm:uturn",
    "tm:wildcharge",
    "tm:willowisp",
    "tm:zenheadbutt",
    "tutor:bugbite",
    "tutor:gigadrain",
    "tutor:heatwave",
    "tutor:magnetrise",
    "tutor:signalbeam",
    "tutor:skittersmack",
    "tutor:sleeptalk",
    "tutor:snore",
    "tutor:zenheadbutt"
  ],
  "labels": [
    "gen5"
  ],
  "pokedex": [
    "cobblemon.species.larvesta.desc"
  ],
  "evolutions": [
    {
      "id": "larvesta_volcarona",
      "variant": "level_up",
      "result": "volcarona",
      "consumeHeldItem": false,
      "learnableMoves": [
        "quiverdance"
      ],
      "requirements": [
        {
          "variant": "level",
          "minLevel": 59
        }
      ]
    }
  ],
  "baseScale": 0.8,
  "hitbox": {
    "width": 1.2,
    "height": 0.85,
    "fixed": false
  },
  "baseFriendship": 50,
  "evYield": {
    "hp": 0,
    "attack": 1,
    "defence": 0,
    "special_attack": 0,
    "special_defence": 0,
    "speed": 0
  },
  "height": 11,
  "weight": 288,
  "aspects": [],
  "cannotDynamax": false
}