{
  "implemented": true,
  "name": "Rampardos",
  "nationalPokedexNumber": 409,
  "primaryType": "rock",
  "abilities": [
    "moldbreaker",
    "h:sheerforce"
  ],
  "drops": {
    "amount": 2,
    "entries": [
      {
        "item": "minecraft:bones",
        "quantityRange": "0-2"
      }
    ]
  },
  "baseStats": {
    "hp": 97,
    "attack": 165,
    "defence": 60,
    "special_attack": 65,
    "special_defence": 50,
    "speed": 58
  },
  "catchRate": 45,
  "maleRatio": 0.875,
  "shoulderMountable": false,
  "baseExperienceYield": 173,
  "experienceGroup": "erratic",
  "eggCycles": 30,
  "eggGroups": [
    "monster"
  ],
  "behaviour": {
    "resting": {
      "canSleep": true,
      "willSleepOnBed": false,
      "depth": "normal",
      "light": "0-4"
    },
    "moving" : {
      "walk": {
        "walkSpeed": 0.19
      }
    }
  },
  "moves": [
    "1:endeavor",
    "1:focusenergy",
    "1:headbutt",
    "1:leer",
    "1:pursuit",
    "6:focusenergy",
    "10:pursuit",
    "10:rocksmash",
    "15:takedown",
    "19:scaryface",
    "24:assurance",
    "28:ancientpower",
    "28:chipaway",
    "28:slam",
    "30:endeavor",
    "36:ancientpower",
    "36:zenheadbutt",
    "43:screech",
    "43:zenheadbutt",
    "51:screech",
    "52:headsmash",
    "58:headsmash",
    "tm:attract",
    "tm:avalanche",
    "tm:blizzard",
    "tm:bodypress",
    "tm:bodyslam",
    "tm:breakingswipe",
    "tm:brickbreak",
    "tm:bulldoze",
    "tm:captivate",
    "tm:confide",
    "tm:crunch",
    "tm:curse",
    "tm:cut",
    "tm:dig",
    "tm:doubleedge",
    "tm:doubleteam",
    "tm:dragoncheer",
    "tm:dragonclaw",
    "tm:dragonpulse",
    "tm:dragontail",
    "tm:earthpower",
    "tm:earthquake",
    "tm:endeavor",
    "tm:endure",
    "tm:facade",
    "tm:fireblast",
    "tm:firepunch",
    "tm:flamethrower",
    "tm:fling",
    "tm:focusblast",
    "tm:focuspunch",
    "tm:frustration",
    "tm:gigaimpact",
    "tm:heavyslam",
    "tm:hiddenpower",
    "tm:hyperbeam",
    "tm:icebeam",
    "tm:incinerate",
    "tm:ironhead",
    "tm:irontail",
    "tm:mudslap",
    "tm:naturalgift",
    "tm:outrage",
    "tm:payback",
    "tm:poweruppunch",
    "tm:protect",
    "tm:raindance",
    "tm:rest",
    "tm:return",
    "tm:roar",
    "tm:rockblast",
    "tm:rockclimb",
    "tm:rockpolish",
    "tm:rockslide",
    "tm:rocksmash",
    "tm:rocktomb",
    "tm:round",
    "tm:sandstorm",
    "tm:scaryface",
    "tm:secretpower",
    "tm:shockwave",
    "tm:sleeptalk",
    "tm:smackdown",
    "tm:stealthrock",
    "tm:stompingtantrum",
    "tm:stoneedge",
    "tm:strength",
    "tm:substitute",
    "tm:sunnyday",
    "tm:supercellslam",
    "tm:surf",
    "tm:swagger",
    "tm:swordsdance",
    "tm:takedown",
    "tm:terablast",
    "tm:thief",
    "tm:thunder",
    "tm:thunderbolt",
    "tm:thunderpunch",
    "tm:toxic",
    "tm:trailblaze",
    "tm:uproar",
    "tm:whirlpool",
    "tm:zenheadbutt",
    "tutor:ancientpower",
    "tutor:dragonpulse",
    "tutor:earthpower",
    "tutor:endeavor",
    "tutor:firepunch",
    "tutor:focuspunch",
    "tutor:headbutt",
    "tutor:ironhead",
    "tutor:irontail",
    "tutor:laserfocus",
    "tutor:mudslap",
    "tutor:outrage",
    "tutor:painsplit",
    "tutor:shockwave",
    "tutor:sleeptalk",
    "tutor:snore",
    "tutor:spite",
    "tutor:stealthrock",
    "tutor:stompingtantrum",
    "tutor:superpower",
    "tutor:thunderpunch",
    "tutor:uproar",
    "tutor:zenheadbutt"
  ],
  "labels": [
    "gen4"
  ],
  "pokedex": [
    "cobblemon.species.rampardos.desc"
  ],
  "preEvolution": "cranidos",
  "evolutions": [],
  "baseScale": 0.9,
  "hitbox": {
    "width": 1.6,
    "height": 2.5,
    "fixed": false
  },
  "baseFriendship": 70,
  "evYield": {
    "hp": 0,
    "attack": 2,
    "defence": 0,
    "special_attack": 0,
    "special_defence": 0,
    "speed": 0
  },
  "height": 16,
  "weight": 1025,
  "aspects": [],
  "cannotDynamax": false
}