{
	"format_version": "1.8.0",
	"animations": {
		"animation.cubone.test": {
			"loop": true,
			"bones": {
				"torso": {
					"rotation": [4.99527, 0.21782, -2.4905]
				},
				"upper_torso": {
					"rotation": [-4.89169, 2.70615, 2.27522]
				},
				"left_upper_arm": {
					"rotation": [11.26653, 25.25199, 25.03149]
				},
				"left_leg": {
					"rotation": [0, 0, 0],
					"position": [0, 0, -0.25]
				},
				"left_foot": {
					"rotation": [0, -17.5, 0]
				},
				"head": {
					"rotation": [-2.53852, -9.99038, 0.44067]
				},
				"left_lower_arm": {
					"rotation": [0, 27.5, 0]
				},
				"tail": {
					"rotation": [-17.64168, 7.15102, -2.26708]
				},
				"tail2": {
					"rotation": [10.23772, 12.3071, 2.20462]
				},
				"right_leg": {
					"rotation": [15, 0, 0],
					"position": [0, 0, 0.25]
				},
				"right_upper_arm": {
					"rotation": [48.86565, 2.2249, -21.49591],
					"position": [0, -0.25, -0.25]
				},
				"right_lower_arm": {
					"rotation": [0, -7.5, 0]
				},
				"right_foot": {
					"rotation": [-8.37428, 19.41645, -2.93202]
				},
				"left_thumb": {
					"rotation": [25, 0, 0]
				},
				"right_thumb": {
					"rotation": [0, 0, 90],
					"position": [0.25, 0, 0]
				},
				"jaw": {
					"rotation": [0, 0, 0]
				},
				"bone_torso": {
					"rotation": [4.99527, 0.21782, -2.4905]
				},
				"bone_upper_torso": {
					"rotation": [-4.89169, 2.70615, 2.27522]
				},
				"bone_right_upper_arm": {
					"rotation": [48.86565, 2.2249, -21.49591],
					"position": [0, -0.25, -0.25]
				},
				"bone_right_lower_arm": {
					"rotation": [0, -7.5, 0]
				}
			}
		},
		"animation.cubone.idle": {
			"loop": true,
			"bones": {
				"torso": {
					"rotation": [5, 0, 0]
				},
				"upper_torso": {
					"rotation": [-2.5, 0, 0]
				},
				"left_upper_arm": {
					"rotation": [0, 0, 27.5]
				},
				"left_lower_arm": {
					"rotation": [0, 10, 0]
				},
				"right_upper_arm": {
					"rotation": [35, 0, -22.5],
					"position": [0, 0, -0.25]
				},
				"right_lower_arm": {
					"rotation": [0, -5, 0]
				},
				"right_thumb": {
					"rotation": [0, 0, 90],
					"position": [0.25, 0, 0]
				},
				"head": {
					"rotation": [-2.5, 0, 0]
				},
				"tail": {
					"rotation": [-15, 0, 0]
				},
				"tail2": {
					"rotation": [10, 0, 0]
				},
				"left_leg": {
					"rotation": [0, -5, 0]
				},
				"left_foot": {
					"rotation": [0, -12.5, 0]
				},
				"right_leg": {
					"rotation": [0, 5, 0]
				},
				"right_foot": {
					"rotation": [0, 12.5, 0]
				}
			}
		},
		"animation.cubone.blink": {
			"animation_length": 0.16667,
			"bones": {
				"left_eyelid": {
					"position": {
						"0.0": [0.1, 0, 0],
						"0.125": {"pre": [0.1, 0, 0], "post": [0.1, 0, 0]},
						"0.1667": {"pre": [0.1, 0, 0], "post": [0, 0, 0]}
					}
				},
				"right_eyelid": {
					"position": {
						"0.0": [-0.1, 0, 0],
						"0.125": {"pre": [-0.1, 0, 0], "post": [-0.1, 0, 0]},
						"0.1667": {"pre": [-0.1, 0, 0], "post": [0, 0, 0]}
					}
				}
			}
		},
		"animation.cubone.cry": {
			"animation_length": 1.16667,
			"bones": {
				"upper_torso": {
					"rotation": {
						"0.0833": {
							"pre": [0, 0, 0],
							"post": [0, 0, 0],
							"lerp_mode": "catmullrom"
						},
						"0.4167": {
							"post": [-2.5, 0, 0],
							"lerp_mode": "catmullrom"
						},
						"0.9167": {
							"post": [0, 0, 0],
							"lerp_mode": "catmullrom"
						}
					}
				},
				"head": {
					"rotation": {
						"0.0": {
							"post": [0, 0, 0],
							"lerp_mode": "catmullrom"
						},
						"0.4167": {
							"post": [-7.5, 0, 0],
							"lerp_mode": "catmullrom"
						},
						"0.625": {
							"post": [-7.5, 0, 0],
							"lerp_mode": "catmullrom"
						},
						"1.0": {
							"post": [0, 0, 0],
							"lerp_mode": "catmullrom"
						}
					}
				},
				"jaw": {
					"rotation": {
						"0.0": {
							"post": [0, 0, 0],
							"lerp_mode": "catmullrom"
						},
						"0.25": {
							"post": [45, 0, 0],
							"lerp_mode": "catmullrom"
						},
						"0.625": {
							"post": [45, 0, 0],
							"lerp_mode": "catmullrom"
						},
						"1.0": {
							"post": [0, 0, 0],
							"lerp_mode": "catmullrom"
						}
					}
				}
			},
			"sound_effects": {
				"0.2083": {
					"effect": "pokemon.cubone.cry"
				}
			}
		}
	}
}