{
  "species": "cobblemon:goomy",
  "order": 1,
  "variations": [
    {
      "aspects": ["region-bias-hisui"],
      "poser": "cobblemon:goomy_hisuian",
      "model": "cobblemon:goomy_hisuian.geo",
      "texture": "cobblemon:textures/pokemon/0704_goomy/goomy_hisuian.png",
      "layers": []
    },
    {
      "aspects": [
        "shiny", "region-bias-hisui"
      ],
      "texture": "cobblemon:textures/pokemon/0704_goomy/goomy_hisuian_shiny.png",
      "layers": []
    }
  ]
}